…
``` r
#Installing faraway package
library(faraway)
```

**(b)** Coerce the data to be a tibble instead of a data frame. (You will need the `tibble` package to do so.) How many observations are in this dataset? How many variables? Who are the individuals in this dataset?

``` r
#Installing tibble package and converting diabetes dataset to tibble datatype
library(tibble)
diabetes_t <- as.tibble(diabetes)
diabetes_t
```

    ## # A tibble: 403 x 19
    ##       id  chol stab.glu   hdl ratio glyhb location   age gender height
    ##  * <int> <int>    <int> <int> <dbl> <dbl> <fct>    <int> <fct>   <int>
    ##  1  1000   203       82    56  3.60  4.31 Bucking~    46 female     62
    ##  2  1001   165       97    24  6.90  4.44 Bucking~    29 female     64
    ##  3  1002   228       92    37  6.20  4.64 Bucking~    58 female     61
    ##  4  1003    78       93    12  6.5   4.63 Bucking~    67 male       67
    ##  5  1005   249       90    28  8.90  7.72 Bucking~    64 male       68
    ##  6  1008   248       94    69  3.60  4.81 Bucking~    34 male       71
    ##  7  1011   195       92    41  4.80  4.84 Bucking~    30 male       69
    ##  8  1015   227       75    44  5.20  3.94 Bucking~    37 male       59
    ##  9  1016   177       87    49  3.60  4.84 Bucking~    45 male       69
    ## 10  1022   263       89    40  6.60  5.78 Bucking~    55 female     63
    ## # ... with 393 more rows, and 9 more variables: weight <int>, frame <fct>,
    ## #   bp.1s <int>, bp.1d <int>, bp.2s <int>, bp.2d <int>, waist <int>,
    ## #   hip <int>, time.ppn <int>
…
